{
  "buttom": [
    {
      "icon": "./assets/images/ddv.png",
      "iconmobile": "./assets/images/ddv.png",
      "name": "Dinheiro de Volta",
      "url": "/dinheiro-de-volta"
    },
    {
      "icon": "./assets/images/market.svg",
      "iconmobile": "./assets/images/market_mobile.svg",
      "name": "Compre on-line",
      "url": "/delivery"
    },
    {
      "icon": "./assets/images/smile.png",
      "iconmobile": "./assets/images/smile.png",
      "name": "Clube Condor",
      "url": "https://clubecondor.com",
      "external": true
    },
    {
      "icon": "./assets/images/condor-card.png",
      "iconmobile": "./assets/images/condor-card.png",
      "name": "Cartão Condor",
      "url": "/servicos-financeiro/cartao-condor"
    }
  ]
}
